[
  {"name":"CYBERIUM Test", "id":"CYT", "icon":"assets/sangam.svg","rcp":"https://testnet.cyberium.info"},
  {"name":"CYBERIUM", "id":"CYB", "icon":"assets/sangam.svg","rcp":"https://mainnet.cyberium.info"}
]
